%YAML 1.1
%TAG !u! tag:unity3d.com,2011:
--- !u!162 &1
EditorUserSettings:
  m_ObjectHideFlags: 0
  serializedVersion: 4
  m_ConfigSettings:
    RecentlyUsedSceneGuid-0:
      value: 00520502540c585f5d585e72417b0e4443161c7e7b2a246929784c63e7e6326d
      flags: 0
    RecentlyUsedSceneGuid-1:
      value: 0606515507060d0a090b08241220094415164b7a7a7b7068297a4c6abbb6626e
      flags: 0
    RecentlyUsedSceneGuid-2:
      value: 575304055c07505a0e0f587345250e44444e4f2c742977332f7c4e67e1e6326c
      flags: 0
    RecentlyUsedSceneGuid-3:
      value: 5b0006520000510c5d08582414775c47414e1d7d2d7d2069747d186bb6e13069
      flags: 0
    RecentlyUsedSceneGuid-4:
      value: 05040d02070c5a0a085a5e7b432108441315412f74717f69282c4c36bab96368
      flags: 0
    RecentlyUsedSceneGuid-5:
      value: 0553505557055b5a0f0a0a2740270b44174f412e79707e652f7a1964e1b7303d
      flags: 0
    RecentlyUsedSceneGuid-6:
      value: 5a5757560101590a5d0c0e24427b5d44434e4c7a7b7a23677f2b4565b7b5353a
      flags: 0
    RecentlyUsedSceneGuid-7:
      value: 5b02035150545e0c585f587115715a44424f1a7f2e2d24612e714c66b7b66c6a
      flags: 0
    RecentlyUsedSceneGuid-8:
      value: 0254505356015a09550d0d7042745b444616417d7e2e7f312f7e4a6be3e1666f
      flags: 0
    RecentlyUsedSceneGuid-9:
      value: 5652055051050b0b5d5a092746205c444215492c2a2a7565787c4a60e7b56369
      flags: 0
    UnityEditor.ShaderGraph.Blackboard:
      value: 18135939215a0a5004000b0e15254b524c030a3f2964643d120d1230e9e93a3fd6e826abbd2e2d293c4ead313b08042de6030a0afa240c0d020be94c4baf5e435d8715fa32c70d15d11612dacc11fee5d3c5d1fe9ab1b7968e93e2ffcbc3e7e2f0b3ffe0e8b0be9af8ffaeffff8e85dd8390e3949c8899daa7
      flags: 0
    UnityEditor.ShaderGraph.FloatingWindowsLayout2:
      value: 181344140043005e1a220d3b1f364b524c0c5a27130c293326201334cee5322ca0bd30e8eb293a707b0fd0180b3d0a36fc0d3d04e649500d1002ee0b5dbd1d2c27c00ad113cb1e10e41f1addc80993b98d9884a69ae6d8f0d1cda9e8fbfefaf9f9dea3fdb9ade882f0f7b0e1e380cafbf2c3adc18e9cd285a2908b82ec869c8395949c9483d68a8e97ddbd90bf
      flags: 0
    UnityEditor.ShaderGraph.InspectorWindow:
      value: 18135939215a0a5004000b0e15254b524c1119263f2d6a722016393ce1eb3d36e5d339f9a5602b2e2c07a37e0901373ae01e0008f707250d171df81a53a5405d41895ac825e0100ec20313c0d91cddccd3d0c7efcca9bd88908fecb0f9cfddf1eff4e7a1b1eae482f0fcaee1e1928b86d888ed979b9e8797a7cf
      flags: 0
    UnityEditor.ShaderGraph.ToggleSettings:
      value: 18135d1527590858060c032302276919051e1a26296a7c243f3c187fa0e92708f0e220e0e22d09352a0bed30017c5b2be01f0c47b40219221f1ded0b12eb1f0127cc0bcc18c41a5e911f1dc2de189da1d6d9d8e5cadbf5d7c8d6a4f7e6b2b4baa9dfaaf5aff6bedd
      flags: 0
    vcSharedLogLevel:
      value: 0d5e400f0650
      flags: 0
  m_VCAutomaticAdd: 1
  m_VCDebugCom: 0
  m_VCDebugCmd: 0
  m_VCDebugOut: 0
  m_SemanticMergeMode: 2
  m_DesiredImportWorkerCount: 4
  m_StandbyImportWorkerCount: 2
  m_IdleImportWorkerShutdownDelay: 60000
  m_VCShowFailedCheckout: 1
  m_VCOverwriteFailedCheckoutAssets: 1
  m_VCProjectOverlayIcons: 1
  m_VCHierarchyOverlayIcons: 1
  m_VCOtherOverlayIcons: 1
  m_VCAllowAsyncUpdate: 1
  m_ArtifactGarbageCollection: 1
